{"success":true,"data":[{"id":1,"delivery_batch_id":1,"dispatch_code":"E-GEOFM0054382220251010135112","partial_code":"GEOFM005431748720251010133436","mail_type":"EXPRESS","tat":"2025-10-16T15:59:59.999999Z","transmittal_date":"2025-10-11T05:34:36.000000Z","delivery_status":"pending","delivery_trans_history":[{"action":"dispatched","timestamp":"2025-10-10T05:51:28.401148Z","status":"dispatched","note":"Batch dispatched to courier via DOP","user_id":1,"courier_id":null},{"action":"received_by_courier","timestamp":"2025-10-10T07:24:27.778385Z","status":"received","note":"Dispatch accepted by courier via mobile app","user_id":1,"courier_id":543}],"name":"JAN TRINA DE JESUS","address":"714 PE\u00f1ALOSA ST. TONDO, MANILA BARANGAY 60 MANILA CITY METRO MANILA METRO MANILA 1013","contact":"+639163164531","authorized_rep_1":"SABRINA DE JESUS","contact_rep_1":"+639155952712","authorized_rep_2":"","contact_rep_2":"","authorized_rep_3":null,"contact_rep_3":null,"special_instruction":"SARI SARI STORE","sequence_number":"S132251JA1","barcode_value":"B132251JA1","product":"P145 E3 566411 CARD","remarks":"","media":[]},{"id":2,"delivery_batch_id":1,"dispatch_code":"E-GEOFM0054382220251010135112","partial_code":"GEOFM005431748720251010133436","mail_type":"EXPRESS","tat":"2025-10-16T15:59:59.999999Z","transmittal_date":"2025-10-11T05:34:36.000000Z","delivery_status":"pending","delivery_trans_history":[{"action":"dispatched","timestamp":"2025-10-10T05:51:28.401308Z","status":"dispatched","note":"Batch dispatched to courier via DOP","user_id":1,"courier_id":null},{"action":"received_by_courier","timestamp":"2025-10-10T07:24:27.778385Z","status":"received","note":"Dispatch accepted by courier via mobile app","user_id":1,"courier_id":543}],"name":"JUSTINE MAE BEREDICO","address":"B61 L4 PHASE 2, MAHOGANY STREET, CASIMIRO TOWNHOMES, DEPARO ROAD, CALOOCAN CITY BARANGAY 168 - DEPARO CALOOCAN CITY METRO MANILA METRO MANILA 1400","contact":"+639157990423","authorized_rep_1":"EDWIN BEREDICO","contact_rep_1":"+639096945377","authorized_rep_2":"","contact_rep_2":"","authorized_rep_3":null,"contact_rep_3":null,"special_instruction":"PRIMARK DEPARO","sequence_number":"S132251JU2","barcode_value":"B132251JU2","product":"P145 E3 566411 CARD","remarks":"","media":[]},{"id":3,"delivery_batch_id":1,"dispatch_code":"E-GEOFM0054382220251010135112","partial_code":"GEOFM005431748720251010133436","mail_type":"EXPRESS","tat":"2025-10-16T15:59:59.999999Z","transmittal_date":"2025-10-11T05:34:36.000000Z","delivery_status":"pending","delivery_trans_history":[{"action":"dispatched","timestamp":"2025-10-10T05:51:28.401356Z","status":"dispatched","note":"Batch dispatched to courier via DOP","user_id":1,"courier_id":null},{"action":"received_by_courier","timestamp":"2025-10-10T07:24:27.778385Z","status":"received","note":"Dispatch accepted by courier via mobile app","user_id":1,"courier_id":543}],"name":"SHAMMAH GENTLE EMOLIAP PIHOC","address":"#15, COLONEL SALGADO STREET WEST KAMIAS - PROJECT 5, KAMIAS QUEZON CITY METRO MANILA METRO MANILA 1102","contact":"+639751780664","authorized_rep_1":"","contact_rep_1":"","authorized_rep_2":"","contact_rep_2":"","authorized_rep_3":null,"contact_rep_3":null,"special_instruction":"PIN LOCATION: ILANO DENTAL CLINIC","sequence_number":"S132251SH3","barcode_value":"B132251SH3","product":"P145 E3 566411 CARD","remarks":"","media":[]},{"id":4,"delivery_batch_id":1,"dispatch_code":"E-GEOFM0054382220251010135112","partial_code":"GEOFM005431748720251010133436","mail_type":"EXPRESS","tat":"2025-10-16T15:59:59.999999Z","transmittal_date":"2025-10-11T05:34:36.000000Z","delivery_status":"pending","delivery_trans_history":[{"action":"dispatched","timestamp":"2025-10-10T05:51:28.401399Z","status":"dispatched","note":"Batch dispatched to courier via DOP","user_id":1,"courier_id":null},{"action":"received_by_courier","timestamp":"2025-10-10T07:24:27.778385Z","status":"received","note":"Dispatch accepted by courier via mobile app","user_id":1,"courier_id":543}],"name":"MA. CHRISTINA ERIKA NGO ZACARIAS","address":"29J TOWER CARUSO, VENICE LUXURY RESIDENCE, GENOA STREET PINAGSAMA TAGUIG CITY METRO MANILA METRO MANILA 1630","contact":"+639760639188","authorized_rep_1":"JOHN MIGUEL J. DIMAYUGA","contact_rep_1":"+639158593685","authorized_rep_2":"","contact_rep_2":"","authorized_rep_3":null,"contact_rep_3":null,"special_instruction":"BESIDE 99RANCH STORE","sequence_number":"S132251MA4","barcode_value":"B132251MA4","product":"P145 E3 566411 CARD","remarks":"","media":[]},{"id":5,"delivery_batch_id":1,"dispatch_code":"E-GEOFM0054382220251010135112","partial_code":"GEOFM005431748720251010133436","mail_type":"EXPRESS","tat":"2025-10-16T15:59:59.999999Z","transmittal_date":"2025-10-11T05:34:36.000000Z","delivery_status":"pending","delivery_trans_history":[{"action":"dispatched","timestamp":"2025-10-10T05:51:28.401449Z","status":"dispatched","note":"Batch dispatched to courier via DOP","user_id":1,"courier_id":null},{"action":"received_by_courier","timestamp":"2025-10-10T07:24:27.778385Z","status":"received","note":"Dispatch accepted by courier via mobile app","user_id":1,"courier_id":543}],"name":"JOAN DE CLARO LINGON","address":"1257-D CRISOSTOMO ST. BARANGAY 514 MANILA CITY METRO MANILA METRO MANILA 1008","contact":"+639292857666","authorized_rep_1":"JONELYN LINGON","contact_rep_1":"+639958710391","authorized_rep_2":"","contact_rep_2":"","authorized_rep_3":null,"contact_rep_3":null,"special_instruction":"NEAR DR. ALEJANDRO ALBERT ELEMENTARY SCHOOL","sequence_number":"S132251JO5","barcode_value":"B132251JO5","product":"P145 E3 566411 CARD","remarks":"","media":[]},{"id":6,"delivery_batch_id":1,"dispatch_code":"E-GEOFM0054382220251010135112","partial_code":"GEOFM005431748720251010133436","mail_type":"EXPRESS","tat":"2025-10-16T15:59:59.999999Z","transmittal_date":"2025-10-11T05:34:36.000000Z","delivery_status":"pending","delivery_trans_history":[{"action":"dispatched","timestamp":"2025-10-10T05:51:28.401489Z","status":"dispatched","note":"Batch dispatched to courier via DOP","user_id":1,"courier_id":null},{"action":"received_by_courier","timestamp":"2025-10-10T07:24:27.778385Z","status":"received","note":"Dispatch accepted by courier via mobile app","user_id":1,"courier_id":543}],"name":"VILMA PISIG PORTES","address":"BLK 8,LOT 23,TAAL ST.,MOUNTAIN VIEW SUBD.,FILINVEST 2 BATASAN HILLS - CONSTITUTION HILLS QUEZON CITY METRO MANILA METRO MANILA 1126","contact":"+639672835535","authorized_rep_1":"JONALYN B TOLENTINO","contact_rep_1":"+639162223836","authorized_rep_2":"","contact_rep_2":"","authorized_rep_3":null,"contact_rep_3":null,"special_instruction":"DSWD","sequence_number":"S132251VI6","barcode_value":"B132251VI6","product":"P145 E3 566411 CARD","remarks":"","media":[]},{"id":7,"delivery_batch_id":1,"dispatch_code":"E-GEOFM0054382220251010135112","partial_code":"GEOFM005431748720251010133436","mail_type":"EXPRESS","tat":"2025-10-16T15:59:59.999999Z","transmittal_date":"2025-10-11T05:34:36.000000Z","delivery_status":"pending","delivery_trans_history":[{"action":"dispatched","timestamp":"2025-10-10T05:51:28.401535Z","status":"dispatched","note":"Batch dispatched to courier via DOP","user_id":1,"courier_id":null},{"action":"received_by_courier","timestamp":"2025-10-10T07:24:27.778385Z","status":"received","note":"Dispatch accepted by courier via mobile app","user_id":1,"courier_id":543}],"name":"JERMAINE MOLINA CASTOR","address":"BLK 37 LOT 9 WALKNG WALKNG ST. PEMBO MAKATI CITY PEMBO TAGUIG CITY METRO MANILA METRO MANILA 1642","contact":"+639451470143","authorized_rep_1":"CARMELITA CASTOR","contact_rep_1":"+639615019794","authorized_rep_2":"","contact_rep_2":"","authorized_rep_3":null,"contact_rep_3":null,"special_instruction":"EIGHTS BY JHEI IN WAZE","sequence_number":"S132251JE7","barcode_value":"B132251JE7","product":"P145 E3 566411 CARD","remarks":"","media":[]},{"id":8,"delivery_batch_id":1,"dispatch_code":"E-GEOFM0054382220251010135112","partial_code":"GEOFM005431748720251010133436","mail_type":"EXPRESS","tat":"2025-10-16T15:59:59.999999Z","transmittal_date":"2025-10-11T05:34:36.000000Z","delivery_status":"pending","delivery_trans_history":[{"action":"dispatched","timestamp":"2025-10-10T05:51:28.401575Z","status":"dispatched","note":"Batch dispatched to courier via DOP","user_id":1,"courier_id":null},{"action":"received_by_courier","timestamp":"2025-10-10T07:24:27.778385Z","status":"received","note":"Dispatch accepted by courier via mobile app","user_id":1,"courier_id":543}],"name":"KENNETH KARL GENARES MENDOZA","address":"2014 SINGALONG ST. MALATE BARANGAY 743 MANILA CITY METRO MANILA METRO MANILA 1004","contact":"+639616137371","authorized_rep_1":"KIMBERLY ROSE MENDOZA","contact_rep_1":"+639752119634","authorized_rep_2":"","contact_rep_2":"","authorized_rep_3":null,"contact_rep_3":null,"special_instruction":"ST ANTHONY CHURCH","sequence_number":"S132251KE8","barcode_value":"B132251KE8","product":"P145 E3 566411 CARD","remarks":"","media":[]},{"id":9,"delivery_batch_id":1,"dispatch_code":"E-GEOFM0054382220251010135112","partial_code":"GEOFM005431748720251010133436","mail_type":"EXPRESS","tat":"2025-10-16T15:59:59.999999Z","transmittal_date":"2025-10-11T05:34:36.000000Z","delivery_status":"pending","delivery_trans_history":[{"action":"dispatched","timestamp":"2025-10-10T05:51:28.401619Z","status":"dispatched","note":"Batch dispatched to courier via DOP","user_id":1,"courier_id":null},{"action":"received_by_courier","timestamp":"2025-10-10T07:24:27.778385Z","status":"received","note":"Dispatch accepted by courier via mobile app","user_id":1,"courier_id":543}],"name":"MARICRIS LAPE\u00f1A ROBLES","address":"0560 MANINGAS ST. KM. 38A PULONG BUHANGIN SANTA MARIA BULACAN BULACAN","contact":"+639638542304","authorized_rep_1":"","contact_rep_1":"","authorized_rep_2":"","contact_rep_2":"","authorized_rep_3":null,"contact_rep_3":null,"special_instruction":"WAKITOS PULONG BUHANGIN","sequence_number":"S132251MA9","barcode_value":"B132251MA9","product":"P145 E3 566411 CARD","remarks":"","media":[]},{"id":10,"delivery_batch_id":1,"dispatch_code":"E-GEOFM0054382220251010135112","partial_code":"GEOFM005431748720251010133436","mail_type":"EXPRESS","tat":"2025-10-16T15:59:59.999999Z","transmittal_date":"2025-10-11T05:34:36.000000Z","delivery_status":"pending","delivery_trans_history":[{"action":"dispatched","timestamp":"2025-10-10T05:51:28.401658Z","status":"dispatched","note":"Batch dispatched to courier via DOP","user_id":1,"courier_id":null},{"action":"received_by_courier","timestamp":"2025-10-10T07:24:27.778385Z","status":"received","note":"Dispatch accepted by courier via mobile app","user_id":1,"courier_id":543}],"name":"CHRISTINA TORRES LEGANSON","address":"647B CAROLA STREET SAMPALOC BARANGAY 432 MANILA CITY METRO MANILA METRO MANILA 1008","contact":"+639236018738","authorized_rep_1":"","contact_rep_1":"","authorized_rep_2":"","contact_rep_2":"","authorized_rep_3":null,"contact_rep_3":null,"special_instruction":"OSPITAL NG SAMPALOC","sequence_number":"S132251CH10","barcode_value":"B132251CH10","product":"P145 E3 566411 CARD","remarks":"","media":[]}],"pagination":{"current_page":1,"last_page":2,"per_page":10,"total":15},"courier_id":543,"filters_applied":{"status":null,"active":"true","from_date":null,"to_date":null,"page":1,"per_page":"10"}}